Utilcode = UtilCode123
Short Code = ShortCode123
Merchant - PartyName = abc
Merchant_Category_Code = 1080
Merchant_Category_Desc = abc
Merchant_CreditorName = abc
Merchant_CreditorAccountNo = 112345654321234565432
CheckSum = 96f62b1de0e7fbce3d68091061f98ec1f1909db5d8d38436dd773175bd0fbdd8 (Generated Value)
MsgId = 112345654321234565432
Customer_Name  = Gowtham
Customer_TelNo = 
Customer_Mobile = 091248434938549
Customer_EmailId = abc@gmail.com
Customer_AccountNo = 50100000005810
Customer_StartDate = 2020-01-03
Customer_ExpiryDate = 2020-05-02
Customer_DebitAmount = 500.00
Customer_MaxAmount = 
Customer_DebitFrequency = ADHO
Customer_SequenceType = RCUR
IFSC Code = TEST0000001
Channel = Debit
